validacion_detallada/resultado_test8.txt
=== AUDITORÍA TÉCNICA DE CACHÉ ===
======================================================================
  VERIFICADOR ESTRICTO DE CACHÉ — AOC2 Proyecto 2
======================================================================

✅ Protocolo de bus y arquitectura: CORRECTO

📊 RESUMEN DE EVENTOS DETECTADOS:
----------------------------------------
   Miss → Arbitraje                   × 1
   Bus Grant                          × 1
   Block Read (inicio)                × 1
   Block Loaded (tags)                × 1
   Ready tras miss                    × 1
   Stall MIPS                         × 1
   MIPS reanudado                     × 1
   Contador                           × 80

  Total eventos detectados: 87

📋 TIMELINE DE EVENTOS:
----------------------------------------------------------------------
  [   65.0 ns]  Contador                           — cont_m++ (miss)
  [   65.0 ns]  Stall MIPS                         — MIPS detenido
  [   75.0 ns]  Miss → Arbitraje                   — addr=0x0 op=read
  [   75.0 ns]  Bus Grant                          — 
  [   85.0 ns]  Block Read (inicio)                — Lectura de bloque de MD
  [  205.0 ns]  Block Loaded (tags)                — Tags escritos → vía0
  [  205.0 ns]  Ready tras miss                    — MIPS desbloqueado tras miss (Optimizado)
  [  205.0 ns]  MIPS reanudado                     — MIPS reanudado
  [  275.0 ns]  Contador                           — cont_r++ (read)
  [  345.0 ns]  Contador                           — cont_r++ (read)
  [  405.0 ns]  Contador                           — cont_r++ (read)
  [  465.0 ns]  Contador                           — cont_r++ (read)
  [  525.0 ns]  Contador                           — cont_r++ (read)
  [  585.0 ns]  Contador                           — cont_r++ (read)
  [  645.0 ns]  Contador                           — cont_r++ (read)
  [  705.0 ns]  Contador                           — cont_r++ (read)
  [  765.0 ns]  Contador                           — cont_r++ (read)
  [  825.0 ns]  Contador                           — cont_r++ (read)
  [  885.0 ns]  Contador                           — cont_r++ (read)
  [  945.0 ns]  Contador                           — cont_r++ (read)
  [ 1005.0 ns]  Contador                           — cont_r++ (read)
  [ 1065.0 ns]  Contador                           — cont_r++ (read)
  [ 1125.0 ns]  Contador                           — cont_r++ (read)
  [ 1185.0 ns]  Contador                           — cont_r++ (read)
  [ 1245.0 ns]  Contador                           — cont_r++ (read)
  [ 1305.0 ns]  Contador                           — cont_r++ (read)
  [ 1365.0 ns]  Contador                           — cont_r++ (read)
  [ 1425.0 ns]  Contador                           — cont_r++ (read)
  [ 1485.0 ns]  Contador                           — cont_r++ (read)
  [ 1545.0 ns]  Contador                           — cont_r++ (read)
  [ 1605.0 ns]  Contador                           — cont_r++ (read)
  [ 1665.0 ns]  Contador                           — cont_r++ (read)
  [ 1725.0 ns]  Contador                           — cont_r++ (read)
  [ 1785.0 ns]  Contador                           — cont_r++ (read)
  [ 1845.0 ns]  Contador                           — cont_r++ (read)
  [ 1905.0 ns]  Contador                           — cont_r++ (read)
  [ 1965.0 ns]  Contador                           — cont_r++ (read)
  [ 2025.0 ns]  Contador                           — cont_r++ (read)
  [ 2085.0 ns]  Contador                           — cont_r++ (read)
  [ 2145.0 ns]  Contador                           — cont_r++ (read)
  [ 2205.0 ns]  Contador                           — cont_r++ (read)
  [ 2265.0 ns]  Contador                           — cont_r++ (read)
  [ 2325.0 ns]  Contador                           — cont_r++ (read)
  [ 2385.0 ns]  Contador                           — cont_r++ (read)
  [ 2445.0 ns]  Contador                           — cont_r++ (read)
  [ 2505.0 ns]  Contador                           — cont_r++ (read)
  [ 2565.0 ns]  Contador                           — cont_r++ (read)
  [ 2625.0 ns]  Contador                           — cont_r++ (read)
  [ 2685.0 ns]  Contador                           — cont_r++ (read)
  [ 2745.0 ns]  Contador                           — cont_r++ (read)
  [ 2805.0 ns]  Contador                           — cont_r++ (read)
  [ 2865.0 ns]  Contador                           — cont_r++ (read)
  [ 2925.0 ns]  Contador                           — cont_r++ (read)
  [ 2985.0 ns]  Contador                           — cont_r++ (read)
  [ 3045.0 ns]  Contador                           — cont_r++ (read)
  [ 3105.0 ns]  Contador                           — cont_r++ (read)
  [ 3165.0 ns]  Contador                           — cont_r++ (read)
  [ 3225.0 ns]  Contador                           — cont_r++ (read)
  [ 3285.0 ns]  Contador                           — cont_r++ (read)
  [ 3345.0 ns]  Contador                           — cont_r++ (read)
  [ 3405.0 ns]  Contador                           — cont_r++ (read)
  [ 3465.0 ns]  Contador                           — cont_r++ (read)
  [ 3525.0 ns]  Contador                           — cont_r++ (read)
  [ 3585.0 ns]  Contador                           — cont_r++ (read)
  [ 3645.0 ns]  Contador                           — cont_r++ (read)
  [ 3705.0 ns]  Contador                           — cont_r++ (read)
  [ 3765.0 ns]  Contador                           — cont_r++ (read)
  [ 3825.0 ns]  Contador                           — cont_r++ (read)
  [ 3885.0 ns]  Contador                           — cont_r++ (read)
  [ 3945.0 ns]  Contador                           — cont_r++ (read)
  [ 4005.0 ns]  Contador                           — cont_r++ (read)
  [ 4065.0 ns]  Contador                           — cont_r++ (read)
  [ 4125.0 ns]  Contador                           — cont_r++ (read)
  [ 4185.0 ns]  Contador                           — cont_r++ (read)
  [ 4245.0 ns]  Contador                           — cont_r++ (read)
  [ 4305.0 ns]  Contador                           — cont_r++ (read)
  [ 4365.0 ns]  Contador                           — cont_r++ (read)
  [ 4425.0 ns]  Contador                           — cont_r++ (read)
  [ 4485.0 ns]  Contador                           — cont_r++ (read)
  [ 4545.0 ns]  Contador                           — cont_r++ (read)
  [ 4605.0 ns]  Contador                           — cont_r++ (read)
  [ 4665.0 ns]  Contador                           — cont_r++ (read)
  [ 4725.0 ns]  Contador                           — cont_r++ (read)
  [ 4785.0 ns]  Contador                           — cont_r++ (read)
  [ 4845.0 ns]  Contador                           — cont_r++ (read)
  [ 4905.0 ns]  Contador                           — cont_r++ (read)
  [ 4965.0 ns]  Contador                           — cont_r++ (read)

======================================================================
  VERIFICACIONES DE INTEGRIDAD
======================================================================
  ✅ PASS: Protocolo de bus (palabras/bloque, señales control)
  ✅ PASS: Se detectaron misses de caché (1 encontrados)
  ✅ PASS: Bus_grant recibido tras cada miss (1 grants para 1 misses)
  ✅ PASS: MIPS se desbloquea tras cada stall (1 ends para 1 starts)
  ✅ PASS: Ready vuelve a '1' tras transacciones de bus (1 veces)
  ✅ PASS: Cada block read completa tags (1 tags para 1 lecturas)
  ✅ PASS: cont_m se incrementa al detectar miss (1 incrementos)
  ✅ PASS: MIPS no se queda colgado indefinidamente

----------------------------------------
  🎯 RESULTADO: 8/8 verificaciones PASADAS



=== LOG DETALLADO DE SIMULACIÓN ===
[0;32m=== AOC2 Proyecto 2 ===[0m
Modo: [1;33mdefault[0m
Prueba RAM seleccionada: [1;33mbucle_lectura[0m
[1;33mCompilando proyecto...[0m
proyecto2/MD_scratch_2026.vhd:107:1:warning: declaration of "MD_scratch" hides entity "MD_scratch" [-Whide]
MD_scratch: RAM_64_32 PORT MAP (CLK => CLK, enable => MD_Scratch_enable, ADDR => MD_scratch_addr, Din => Bus_Data, WE =>  Scratch_WE, RE => Scratch_RE, Dout => MD_Scratch_Dout_int);
^
proyecto2/MD_scratch_2026.vhd:107:1:warning: declaration of "MD_scratch" hides entity "MD_scratch" [-Whide]
MD_scratch: RAM_64_32 PORT MAP (CLK => CLK, enable => MD_Scratch_enable, ADDR => MD_scratch_addr, Din => Bus_Data, WE =>  Scratch_WE, RE => Scratch_RE, Dout => MD_Scratch_Dout_int);
^
proyecto2/IO_MD_subsystem_P2_26.vhd:305:9:warning: port "IO_M_Fetch_inc" of entity "IO_master" is not bound [-Wbinding]
        Modulo_IO: IO_Master port map(  clk => clk, reset => reset, 
        ^
proyecto2/IO_MD_subsystem_P2_26.vhd:57:14:warning: (in default configuration of IO_Data_Memory_Subsystem(Behavioral))
[0;32mâœ“ Compilacion exitosa[0m
[1;33mEjecutando simulacion...[0m
[1;33mStop-time: 15us[0m
proyecto2/IO_MD_subsystem_P2_26.vhd:305:9:warning: port "IO_M_Fetch_inc" of entity "IO_master" is not bound [-Wbinding]
        Modulo_IO: IO_Master port map(  clk => clk, reset => reset, 
        ^
proyecto2/IO_MD_subsystem_P2_26.vhd:57:14:warning: (in default configuration of IO_Data_Memory_Subsystem(Behavioral))
proyecto2/testbench_AOC2_SoC.vhd:73:13:@5ns:(assertion note): >>> [ALERTA] MEMORY ERROR / DATA ABORT DETECTADO! <<<
proyecto2/testbench_AOC2_SoC.vhd:88:13:@5ns:(assertion note): >>> [ARBITRAJE] Bus concedido al IO_MASTER
proyecto2/testbench_AOC2_SoC.vhd:28:17:@20ns:(assertion note): --- INICIANDO TEST DE INTEGRACION FINAL ---
proyecto2/testbench_AOC2_SoC.vhd:88:13:@55ns:(assertion note): >>> [ARBITRAJE] Bus concedido al IO_MASTER
proyecto2/testbench_AOC2_SoC.vhd:66:13:@75ns:(assertion note): >>> [EVENTO] MISS en addr=00000000
proyecto2/testbench_AOC2_SoC.vhd:79:13:@85ns:(report note): >>> [DEBUG] MIPS pide bus para addr=00000000 (NC='0')
proyecto2/testbench_AOC2_SoC.vhd:85:13:@85ns:(assertion note): >>> [ARBITRAJE] Bus concedido al MIPS
proyecto2/Via_2026_CB.vhd:60:33:@155ns:(report note): Simulation time : 155000000 fs.  Data written in via 0: 1, in Dir_cjto = 0
proyecto2/Via_2026_CB.vhd:60:33:@175ns:(report note): Simulation time : 175000000 fs.  Data written in via 0: 0, in Dir_cjto = 0
proyecto2/Via_2026_CB.vhd:60:33:@195ns:(report note): Simulation time : 195000000 fs.  Data written in via 0: 0, in Dir_cjto = 0
proyecto2/Via_2026_CB.vhd:74:33:@215ns:(report note): Simulation time : 215000000 fs.  Tag written in via 0: 0, in Dir_cjto = 0
proyecto2/Via_2026_CB.vhd:60:33:@215ns:(report note): Simulation time : 215000000 fs.  Data written in via 0: 0, in Dir_cjto = 0
proyecto1/BReg.vhd:67:34:@220ns:(report note): Simulation time : 220000000 fs.  Data written: 0, in Reg = 1
proyecto2/testbench_AOC2_SoC.vhd:88:13:@225ns:(assertion note): >>> [ARBITRAJE] Bus concedido al IO_MASTER
proyecto1/BReg.vhd:67:34:@240ns:(report note): Simulation time : 240000000 fs.  Data written: 0, in Reg = 4
proyecto1/BReg.vhd:67:34:@250ns:(report note): Simulation time : 250000000 fs.  Data written: 0, in Reg = 4
proyecto2/testbench_AOC2_SoC.vhd:88:13:@255ns:(assertion note): >>> [ARBITRAJE] Bus concedido al IO_MASTER
proyecto1/BReg.vhd:67:34:@260ns:(report note): Simulation time : 260000000 fs.  Data written: 0, in Reg = 8
proyecto1/BReg.vhd:67:34:@270ns:(report note): Simulation time : 270000000 fs.  Data written: 0, in Reg = 16
proyecto1/BReg.vhd:67:34:@280ns:(report note): Simulation time : 280000000 fs.  Data written: 0, in Reg = 6
proyecto2/testbench_AOC2_SoC.vhd:88:13:@285ns:(assertion note): >>> [ARBITRAJE] Bus concedido al IO_MASTER
proyecto1/BReg.vhd:67:34:@290ns:(report note): Simulation time : 290000000 fs.  Data written: 0, in Reg = 4
proyecto1/BReg.vhd:67:34:@300ns:(report note): Simulation time : 300000000 fs.  Data written: 1, in Reg = 2
proyecto1/BReg.vhd:67:34:@310ns:(report note): Simulation time : 310000000 fs.  Data written: 0, in Reg = 2
proyecto2/testbench_AOC2_SoC.vhd:88:13:@315ns:(assertion note): >>> [ARBITRAJE] Bus concedido al IO_MASTER
proyecto1/BReg.vhd:67:34:@320ns:(report note): Simulation time : 320000000 fs.  Data written: 0, in Reg = 6
proyecto1/BReg.vhd:67:34:@330ns:(report note): Simulation time : 330000000 fs.  Data written: 0, in Reg = 5
proyecto2/testbench_AOC2_SoC.vhd:88:13:@345ns:(assertion note): >>> [ARBITRAJE] Bus concedido al IO_MASTER
proyecto1/BReg.vhd:67:34:@360ns:(report note): Simulation time : 360000000 fs.  Data written: 1, in Reg = 2
proyecto1/BReg.vhd:67:34:@370ns:(report note): Simulation time : 370000000 fs.  Data written: 0, in Reg = 2
proyecto2/testbench_AOC2_SoC.vhd:88:13:@375ns:(assertion note): >>> [ARBITRAJE] Bus concedido al IO_MASTER
proyecto1/BReg.vhd:67:34:@380ns:(report note): Simulation time : 380000000 fs.  Data written: 0, in Reg = 6
proyecto1/BReg.vhd:67:34:@390ns:(report note): Simulation time : 390000000 fs.  Data written: 0, in Reg = 5
proyecto2/testbench_AOC2_SoC.vhd:88:13:@405ns:(assertion note): >>> [ARBITRAJE] Bus concedido al IO_MASTER
proyecto1/BReg.vhd:67:34:@420ns:(report note): Simulation time : 420000000 fs.  Data written: 1, in Reg = 2
proyecto1/BReg.vhd:67:34:@430ns:(report note): Simulation time : 430000000 fs.  Data written: 0, in Reg = 2
proyecto2/testbench_AOC2_SoC.vhd:88:13:@435ns:(assertion note): >>> [ARBITRAJE] Bus concedido al IO_MASTER
proyecto1/BReg.vhd:67:34:@440ns:(report note): Simulation time : 440000000 fs.  Data written: 0, in Reg = 6
proyecto1/BReg.vhd:67:34:@450ns:(report note): Simulation time : 450000000 fs.  Data written: 0, in Reg = 5
proyecto2/testbench_AOC2_SoC.vhd:88:13:@465ns:(assertion note): >>> [ARBITRAJE] Bus concedido al IO_MASTER
proyecto1/BReg.vhd:67:34:@480ns:(report note): Simulation time : 480000000 fs.  Data written: 1, in Reg = 2
proyecto1/BReg.vhd:67:34:@490ns:(report note): Simulation time : 490000000 fs.  Data written: 0, in Reg = 2
proyecto2/testbench_AOC2_SoC.vhd:88:13:@495ns:(assertion note): >>> [ARBITRAJE] Bus concedido al IO_MASTER
proyecto1/BReg.vhd:67:34:@500ns:(report note): Simulation time : 500000000 fs.  Data written: 0, in Reg = 6
proyecto1/BReg.vhd:67:34:@510ns:(report note): Simulation time : 510000000 fs.  Data written: 0, in Reg = 5
proyecto2/testbench_AOC2_SoC.vhd:88:13:@525ns:(assertion note): >>> [ARBITRAJE] Bus concedido al IO_MASTER
proyecto1/BReg.vhd:67:34:@540ns:(report note): Simulation time : 540000000 fs.  Data written: 1, in Reg = 2
proyecto1/BReg.vhd:67:34:@550ns:(report note): Simulation time : 550000000 fs.  Data written: 0, in Reg = 2
proyecto2/testbench_AOC2_SoC.vhd:88:13:@555ns:(assertion note): >>> [ARBITRAJE] Bus concedido al IO_MASTER
proyecto1/BReg.vhd:67:34:@560ns:(report note): Simulation time : 560000000 fs.  Data written: 0, in Reg = 6
proyecto1/BReg.vhd:67:34:@570ns:(report note): Simulation time : 570000000 fs.  Data written: 0, in Reg = 5
proyecto2/testbench_AOC2_SoC.vhd:88:13:@585ns:(assertion note): >>> [ARBITRAJE] Bus concedido al IO_MASTER
proyecto1/BReg.vhd:67:34:@600ns:(report note): Simulation time : 600000000 fs.  Data written: 1, in Reg = 2
proyecto1/BReg.vhd:67:34:@610ns:(report note): Simulation time : 610000000 fs.  Data written: 0, in Reg = 2
proyecto2/testbench_AOC2_SoC.vhd:88:13:@615ns:(assertion note): >>> [ARBITRAJE] Bus concedido al IO_MASTER
proyecto1/BReg.vhd:67:34:@620ns:(report note): Simulation time : 620000000 fs.  Data written: 0, in Reg = 6
proyecto1/BReg.vhd:67:34:@630ns:(report note): Simulation time : 630000000 fs.  Data written: 0, in Reg = 5
proyecto2/testbench_AOC2_SoC.vhd:88:13:@645ns:(assertion note): >>> [ARBITRAJE] Bus concedido al IO_MASTER
proyecto1/BReg.vhd:67:34:@660ns:(report note): Simulation time : 660000000 fs.  Data written: 1, in Reg = 2
proyecto1/BReg.vhd:67:34:@670ns:(report note): Simulation time : 670000000 fs.  Data written: 0, in Reg = 2
proyecto2/testbench_AOC2_SoC.vhd:88:13:@675ns:(assertion note): >>> [ARBITRAJE] Bus concedido al IO_MASTER
proyecto1/BReg.vhd:67:34:@680ns:(report note): Simulation time : 680000000 fs.  Data written: 0, in Reg = 6
proyecto1/BReg.vhd:67:34:@690ns:(report note): Simulation time : 690000000 fs.  Data written: 0, in Reg = 5
proyecto2/testbench_AOC2_SoC.vhd:88:13:@705ns:(assertion note): >>> [ARBITRAJE] Bus concedido al IO_MASTER
proyecto1/BReg.vhd:67:34:@720ns:(report note): Simulation time : 720000000 fs.  Data written: 1, in Reg = 2
proyecto1/BReg.vhd:67:34:@730ns:(report note): Simulation time : 730000000 fs.  Data written: 0, in Reg = 2
proyecto2/testbench_AOC2_SoC.vhd:88:13:@735ns:(assertion note): >>> [ARBITRAJE] Bus concedido al IO_MASTER
proyecto1/BReg.vhd:67:34:@740ns:(report note): Simulation time : 740000000 fs.  Data written: 0, in Reg = 6
proyecto1/BReg.vhd:67:34:@750ns:(report note): Simulation time : 750000000 fs.  Data written: 0, in Reg = 5
proyecto2/testbench_AOC2_SoC.vhd:88:13:@765ns:(assertion note): >>> [ARBITRAJE] Bus concedido al IO_MASTER
proyecto1/BReg.vhd:67:34:@780ns:(report note): Simulation time : 780000000 fs.  Data written: 1, in Reg = 2
proyecto1/BReg.vhd:67:34:@790ns:(report note): Simulation time : 790000000 fs.  Data written: 0, in Reg = 2
proyecto2/testbench_AOC2_SoC.vhd:88:13:@795ns:(assertion note): >>> [ARBITRAJE] Bus concedido al IO_MASTER
proyecto1/BReg.vhd:67:34:@800ns:(report note): Simulation time : 800000000 fs.  Data written: 0, in Reg = 6
proyecto1/BReg.vhd:67:34:@810ns:(report note): Simulation time : 810000000 fs.  Data written: 0, in Reg = 5
proyecto2/testbench_AOC2_SoC.vhd:88:13:@825ns:(assertion note): >>> [ARBITRAJE] Bus concedido al IO_MASTER
proyecto1/BReg.vhd:67:34:@840ns:(report note): Simulation time : 840000000 fs.  Data written: 1, in Reg = 2
proyecto1/BReg.vhd:67:34:@850ns:(report note): Simulation time : 850000000 fs.  Data written: 0, in Reg = 2
proyecto2/testbench_AOC2_SoC.vhd:88:13:@855ns:(assertion note): >>> [ARBITRAJE] Bus concedido al IO_MASTER
proyecto1/BReg.vhd:67:34:@860ns:(report note): Simulation time : 860000000 fs.  Data written: 0, in Reg = 6
proyecto1/BReg.vhd:67:34:@870ns:(report note): Simulation time : 870000000 fs.  Data written: 0, in Reg = 5
proyecto2/testbench_AOC2_SoC.vhd:88:13:@885ns:(assertion note): >>> [ARBITRAJE] Bus concedido al IO_MASTER
proyecto1/BReg.vhd:67:34:@900ns:(report note): Simulation time : 900000000 fs.  Data written: 1, in Reg = 2
proyecto1/BReg.vhd:67:34:@910ns:(report note): Simulation time : 910000000 fs.  Data written: 0, in Reg = 2
proyecto2/testbench_AOC2_SoC.vhd:88:13:@915ns:(assertion note): >>> [ARBITRAJE] Bus concedido al IO_MASTER
proyecto1/BReg.vhd:67:34:@920ns:(report note): Simulation time : 920000000 fs.  Data written: 0, in Reg = 6
proyecto1/BReg.vhd:67:34:@930ns:(report note): Simulation time : 930000000 fs.  Data written: 0, in Reg = 5
proyecto2/testbench_AOC2_SoC.vhd:88:13:@945ns:(assertion note): >>> [ARBITRAJE] Bus concedido al IO_MASTER
proyecto1/BReg.vhd:67:34:@960ns:(report note): Simulation time : 960000000 fs.  Data written: 1, in Reg = 2
proyecto1/BReg.vhd:67:34:@970ns:(report note): Simulation time : 970000000 fs.  Data written: 0, in Reg = 2
proyecto2/testbench_AOC2_SoC.vhd:88:13:@975ns:(assertion note): >>> [ARBITRAJE] Bus concedido al IO_MASTER
proyecto1/BReg.vhd:67:34:@980ns:(report note): Simulation time : 980000000 fs.  Data written: 0, in Reg = 6
proyecto1/BReg.vhd:67:34:@990ns:(report note): Simulation time : 990000000 fs.  Data written: 0, in Reg = 5
proyecto2/testbench_AOC2_SoC.vhd:88:13:@1005ns:(assertion note): >>> [ARBITRAJE] Bus concedido al IO_MASTER
proyecto1/BReg.vhd:67:34:@1020ns:(report note): Simulation time : 1020000000 fs.  Data written: 1, in Reg = 2
proyecto1/BReg.vhd:67:34:@1030ns:(report note): Simulation time : 1030000000 fs.  Data written: 0, in Reg = 2
proyecto2/testbench_AOC2_SoC.vhd:88:13:@1035ns:(assertion note): >>> [ARBITRAJE] Bus concedido al IO_MASTER
proyecto1/BReg.vhd:67:34:@1040ns:(report note): Simulation time : 1040000000 fs.  Data written: 0, in Reg = 6
proyecto1/BReg.vhd:67:34:@1050ns:(report note): Simulation time : 1050000000 fs.  Data written: 0, in Reg = 5
proyecto2/testbench_AOC2_SoC.vhd:88:13:@1065ns:(assertion note): >>> [ARBITRAJE] Bus concedido al IO_MASTER
proyecto1/BReg.vhd:67:34:@1080ns:(report note): Simulation time : 1080000000 fs.  Data written: 1, in Reg = 2
proyecto1/BReg.vhd:67:34:@1090ns:(report note): Simulation time : 1090000000 fs.  Data written: 0, in Reg = 2
proyecto2/testbench_AOC2_SoC.vhd:88:13:@1095ns:(assertion note): >>> [ARBITRAJE] Bus concedido al IO_MASTER
proyecto1/BReg.vhd:67:34:@1100ns:(report note): Simulation time : 1100000000 fs.  Data written: 0, in Reg = 6
proyecto1/BReg.vhd:67:34:@1110ns:(report note): Simulation time : 1110000000 fs.  Data written: 0, in Reg = 5
proyecto2/testbench_AOC2_SoC.vhd:88:13:@1125ns:(assertion note): >>> [ARBITRAJE] Bus concedido al IO_MASTER
proyecto1/BReg.vhd:67:34:@1140ns:(report note): Simulation time : 1140000000 fs.  Data written: 1, in Reg = 2
proyecto1/BReg.vhd:67:34:@1150ns:(report note): Simulation time : 1150000000 fs.  Data written: 0, in Reg = 2
proyecto2/testbench_AOC2_SoC.vhd:88:13:@1155ns:(assertion note): >>> [ARBITRAJE] Bus concedido al IO_MASTER
proyecto1/BReg.vhd:67:34:@1160ns:(report note): Simulation time : 1160000000 fs.  Data written: 0, in Reg = 6
proyecto1/BReg.vhd:67:34:@1170ns:(report note): Simulation time : 1170000000 fs.  Data written: 0, in Reg = 5
proyecto2/testbench_AOC2_SoC.vhd:88:13:@1185ns:(assertion note): >>> [ARBITRAJE] Bus concedido al IO_MASTER
proyecto1/BReg.vhd:67:34:@1200ns:(report note): Simulation time : 1200000000 fs.  Data written: 1, in Reg = 2
proyecto1/BReg.vhd:67:34:@1210ns:(report note): Simulation time : 1210000000 fs.  Data written: 0, in Reg = 2
proyecto2/testbench_AOC2_SoC.vhd:88:13:@1215ns:(assertion note): >>> [ARBITRAJE] Bus concedido al IO_MASTER
proyecto1/BReg.vhd:67:34:@1220ns:(report note): Simulation time : 1220000000 fs.  Data written: 0, in Reg = 6
proyecto1/BReg.vhd:67:34:@1230ns:(report note): Simulation time : 1230000000 fs.  Data written: 0, in Reg = 5
proyecto2/testbench_AOC2_SoC.vhd:88:13:@1245ns:(assertion note): >>> [ARBITRAJE] Bus concedido al IO_MASTER
proyecto1/BReg.vhd:67:34:@1260ns:(report note): Simulation time : 1260000000 fs.  Data written: 1, in Reg = 2
proyecto1/BReg.vhd:67:34:@1270ns:(report note): Simulation time : 1270000000 fs.  Data written: 0, in Reg = 2
proyecto2/testbench_AOC2_SoC.vhd:88:13:@1275ns:(assertion note): >>> [ARBITRAJE] Bus concedido al IO_MASTER
proyecto1/BReg.vhd:67:34:@1280ns:(report note): Simulation time : 1280000000 fs.  Data written: 0, in Reg = 6
proyecto1/BReg.vhd:67:34:@1290ns:(report note): Simulation time : 1290000000 fs.  Data written: 0, in Reg = 5
proyecto2/testbench_AOC2_SoC.vhd:88:13:@1305ns:(assertion note): >>> [ARBITRAJE] Bus concedido al IO_MASTER
proyecto1/BReg.vhd:67:34:@1320ns:(report note): Simulation time : 1320000000 fs.  Data written: 1, in Reg = 2
proyecto1/BReg.vhd:67:34:@1330ns:(report note): Simulation time : 1330000000 fs.  Data written: 0, in Reg = 2
proyecto2/testbench_AOC2_SoC.vhd:88:13:@1335ns:(assertion note): >>> [ARBITRAJE] Bus concedido al IO_MASTER
proyecto1/BReg.vhd:67:34:@1340ns:(report note): Simulation time : 1340000000 fs.  Data written: 0, in Reg = 6
proyecto1/BReg.vhd:67:34:@1350ns:(report note): Simulation time : 1350000000 fs.  Data written: 0, in Reg = 5
proyecto2/testbench_AOC2_SoC.vhd:88:13:@1365ns:(assertion note): >>> [ARBITRAJE] Bus concedido al IO_MASTER
proyecto1/BReg.vhd:67:34:@1380ns:(report note): Simulation time : 1380000000 fs.  Data written: 1, in Reg = 2
proyecto1/BReg.vhd:67:34:@1390ns:(report note): Simulation time : 1390000000 fs.  Data written: 0, in Reg = 2
proyecto2/testbench_AOC2_SoC.vhd:88:13:@1395ns:(assertion note): >>> [ARBITRAJE] Bus concedido al IO_MASTER
proyecto1/BReg.vhd:67:34:@1400ns:(report note): Simulation time : 1400000000 fs.  Data written: 0, in Reg = 6
proyecto1/BReg.vhd:67:34:@1410ns:(report note): Simulation time : 1410000000 fs.  Data written: 0, in Reg = 5
proyecto2/testbench_AOC2_SoC.vhd:88:13:@1425ns:(assertion note): >>> [ARBITRAJE] Bus concedido al IO_MASTER
proyecto1/BReg.vhd:67:34:@1440ns:(report note): Simulation time : 1440000000 fs.  Data written: 1, in Reg = 2
proyecto1/BReg.vhd:67:34:@1450ns:(report note): Simulation time : 1450000000 fs.  Data written: 0, in Reg = 2
proyecto2/testbench_AOC2_SoC.vhd:88:13:@1455ns:(assertion note): >>> [ARBITRAJE] Bus concedido al IO_MASTER
proyecto1/BReg.vhd:67:34:@1460ns:(report note): Simulation time : 1460000000 fs.  Data written: 0, in Reg = 6
proyecto1/BReg.vhd:67:34:@1470ns:(report note): Simulation time : 1470000000 fs.  Data written: 0, in Reg = 5
proyecto2/testbench_AOC2_SoC.vhd:88:13:@1485ns:(assertion note): >>> [ARBITRAJE] Bus concedido al IO_MASTER
proyecto1/BReg.vhd:67:34:@1500ns:(report note): Simulation time : 1500000000 fs.  Data written: 1, in Reg = 2
proyecto1/BReg.vhd:67:34:@1510ns:(report note): Simulation time : 1510000000 fs.  Data written: 0, in Reg = 2
proyecto2/testbench_AOC2_SoC.vhd:88:13:@1515ns:(assertion note): >>> [ARBITRAJE] Bus concedido al IO_MASTER
proyecto2/testbench_AOC2_SoC.vhd:96:9:@1520ns:(assertion note): ====================================================
proyecto2/testbench_AOC2_SoC.vhd:97:9:@1520ns:(assertion note):       AUDITORIA FINAL DE RENDIMIENTO (CACHE)        
proyecto2/testbench_AOC2_SoC.vhd:98:9:@1520ns:(assertion note): ====================================================
proyecto2/testbench_AOC2_SoC.vhd:99:9:@1520ns:(assertion note):  - Misses Totales:       1
proyecto2/testbench_AOC2_SoC.vhd:100:9:@1520ns:(assertion note):  - Aciertos Lectura (r): 43
proyecto2/testbench_AOC2_SoC.vhd:101:9:@1520ns:(assertion note):  - Aciertos Escritura(w): 0
proyecto2/testbench_AOC2_SoC.vhd:102:9:@1520ns:(assertion note):  - Bloques Copy-Back:    0
proyecto2/testbench_AOC2_SoC.vhd:103:9:@1520ns:(assertion note): ====================================================
proyecto1/BReg.vhd:67:34:@1520ns:(report note): Simulation time : 1520000000 fs.  Data written: 0, in Reg = 6
proyecto2/testbench_AOC2_SoC.vhd:35:9:@1530ns:(assertion note): --- SIMULACION COMPLETADA ---
proyecto1/BReg.vhd:67:34:@1530ns:(report note): Simulation time : 1530000000 fs.  Data written: 0, in Reg = 5
proyecto2/testbench_AOC2_SoC.vhd:88:13:@1545ns:(assertion note): >>> [ARBITRAJE] Bus concedido al IO_MASTER
proyecto1/BReg.vhd:67:34:@1560ns:(report note): Simulation time : 1560000000 fs.  Data written: 1, in Reg = 2
proyecto1/BReg.vhd:67:34:@1570ns:(report note): Simulation time : 1570000000 fs.  Data written: 0, in Reg = 2
proyecto2/testbench_AOC2_SoC.vhd:88:13:@1575ns:(assertion note): >>> [ARBITRAJE] Bus concedido al IO_MASTER
proyecto1/BReg.vhd:67:34:@1580ns:(report note): Simulation time : 1580000000 fs.  Data written: 0, in Reg = 6
proyecto1/BReg.vhd:67:34:@1590ns:(report note): Simulation time : 1590000000 fs.  Data written: 0, in Reg = 5
proyecto2/testbench_AOC2_SoC.vhd:88:13:@1605ns:(assertion note): >>> [ARBITRAJE] Bus concedido al IO_MASTER
proyecto1/BReg.vhd:67:34:@1620ns:(report note): Simulation time : 1620000000 fs.  Data written: 1, in Reg = 2
proyecto1/BReg.vhd:67:34:@1630ns:(report note): Simulation time : 1630000000 fs.  Data written: 0, in Reg = 2
proyecto2/testbench_AOC2_SoC.vhd:88:13:@1635ns:(assertion note): >>> [ARBITRAJE] Bus concedido al IO_MASTER
proyecto1/BReg.vhd:67:34:@1640ns:(report note): Simulation time : 1640000000 fs.  Data written: 0, in Reg = 6
proyecto1/BReg.vhd:67:34:@1650ns:(report note): Simulation time : 1650000000 fs.  Data written: 0, in Reg = 5
proyecto2/testbench_AOC2_SoC.vhd:88:13:@1665ns:(assertion note): >>> [ARBITRAJE] Bus concedido al IO_MASTER
proyecto1/BReg.vhd:67:34:@1680ns:(report note): Simulation time : 1680000000 fs.  Data written: 1, in Reg = 2
proyecto1/BReg.vhd:67:34:@1690ns:(report note): Simulation time : 1690000000 fs.  Data written: 0, in Reg = 2
proyecto2/testbench_AOC2_SoC.vhd:88:13:@1695ns:(assertion note): >>> [ARBITRAJE] Bus concedido al IO_MASTER
proyecto1/BReg.vhd:67:34:@1700ns:(report note): Simulation time : 1700000000 fs.  Data written: 0, in Reg = 6
proyecto1/BReg.vhd:67:34:@1710ns:(report note): Simulation time : 1710000000 fs.  Data written: 0, in Reg = 5
proyecto2/testbench_AOC2_SoC.vhd:88:13:@1725ns:(assertion note): >>> [ARBITRAJE] Bus concedido al IO_MASTER
proyecto1/BReg.vhd:67:34:@1740ns:(report note): Simulation time : 1740000000 fs.  Data written: 1, in Reg = 2
proyecto1/BReg.vhd:67:34:@1750ns:(report note): Simulation time : 1750000000 fs.  Data written: 0, in Reg = 2
proyecto2/testbench_AOC2_SoC.vhd:88:13:@1755ns:(assertion note): >>> [ARBITRAJE] Bus concedido al IO_MASTER
proyecto1/BReg.vhd:67:34:@1760ns:(report note): Simulation time : 1760000000 fs.  Data written: 0, in Reg = 6
proyecto1/BReg.vhd:67:34:@1770ns:(report note): Simulation time : 1770000000 fs.  Data written: 0, in Reg = 5
