logs/test_bucle_lectura.txt
[0;32m=== AOC2 Proyecto 2 ===[0m
Modo: [1;33mdefault[0m
Prueba RAM seleccionada: [1;33mbucle_lectura[0m
[1;33mCompilando proyecto...[0m
proyecto2/MD_scratch_2026.vhd:107:1:warning: declaration of "MD_scratch" hides entity "MD_scratch" [-Whide]
MD_scratch: RAM_64_32 PORT MAP (CLK => CLK, enable => MD_Scratch_enable, ADDR => MD_scratch_addr, Din => Bus_Data, WE =>  Scratch_WE, RE => Scratch_RE, Dout => MD_Scratch_Dout_int);
^
proyecto2/ram-i/memoriaRAM_I_test.bucle_lectura.P2.vhd:20:1:warning: entity "memoriaram_i" was also defined in file "proyecto2/ram-i/memoriaRAM_I_Test_7_Arbitraje.vhd" [-Wlibrary]
library IEEE;
^
proyecto2/MD_scratch_2026.vhd:107:1:warning: declaration of "MD_scratch" hides entity "MD_scratch" [-Whide]
MD_scratch: RAM_64_32 PORT MAP (CLK => CLK, enable => MD_Scratch_enable, ADDR => MD_scratch_addr, Din => Bus_Data, WE =>  Scratch_WE, RE => Scratch_RE, Dout => MD_Scratch_Dout_int);
^
proyecto2/IO_MD_subsystem_P2_26.vhd:305:9:warning: port "IO_M_Fetch_inc" of entity "IO_master" is not bound [-Wbinding]
        Modulo_IO: IO_Master port map(  clk => clk, reset => reset, 
        ^
proyecto2/IO_MD_subsystem_P2_26.vhd:57:14:warning: (in default configuration of IO_Data_Memory_Subsystem(Behavioral))
[0;32mâœ“ Compilacion exitosa[0m
[1;33mEjecutando simulacion...[0m
[1;33mStop-time: 2000ns[0m
proyecto2/IO_MD_subsystem_P2_26.vhd:305:9:warning: port "IO_M_Fetch_inc" of entity "IO_master" is not bound [-Wbinding]
        Modulo_IO: IO_Master port map(  clk => clk, reset => reset, 
        ^
proyecto2/IO_MD_subsystem_P2_26.vhd:57:14:warning: (in default configuration of IO_Data_Memory_Subsystem(Behavioral))
proyecto2/testbench_AOC2_SoC.vhd:73:13:@5ns:(assertion note): >>> [ALERTA] MEMORY ERROR / DATA ABORT DETECTADO! <<<
proyecto2/testbench_AOC2_SoC.vhd:86:13:@5ns:(assertion note): >>> [ARBITRAJE] Bus concedido al IO_MASTER
proyecto2/testbench_AOC2_SoC.vhd:28:17:@20ns:(assertion note): --- INICIANDO TEST DE INTEGRACION FINAL ---
proyecto2/testbench_AOC2_SoC.vhd:86:13:@55ns:(assertion note): >>> [ARBITRAJE] Bus concedido al IO_MASTER
proyecto2/testbench_AOC2_SoC.vhd:66:13:@75ns:(assertion note): >>> [EVENTO] MISS en addr=00000000
proyecto2/testbench_AOC2_SoC.vhd:78:13:@85ns:(report note): >>> [DEBUG] MIPS pide bus para addr=00000000 (NC='0')
proyecto2/testbench_AOC2_SoC.vhd:83:13:@85ns:(assertion note): >>> [ARBITRAJE] Bus concedido al MIPS
proyecto2/Via_2026_CB.vhd:60:33:@155ns:(report note): Simulation time : 155000000 fs.  Data written in via 0: 1, in Dir_cjto = 0
proyecto2/Via_2026_CB.vhd:60:33:@175ns:(report note): Simulation time : 175000000 fs.  Data written in via 0: 0, in Dir_cjto = 0
proyecto2/Via_2026_CB.vhd:60:33:@195ns:(report note): Simulation time : 195000000 fs.  Data written in via 0: 0, in Dir_cjto = 0
proyecto2/Via_2026_CB.vhd:74:33:@215ns:(report note): Simulation time : 215000000 fs.  Tag written in via 0: 0, in Dir_cjto = 0
proyecto2/Via_2026_CB.vhd:60:33:@215ns:(report note): Simulation time : 215000000 fs.  Data written in via 0: 0, in Dir_cjto = 0
proyecto2/testbench_AOC2_SoC.vhd:86:13:@225ns:(assertion note): >>> [ARBITRAJE] Bus concedido al IO_MASTER
proyecto1/BReg.vhd:67:34:@230ns:(report note): Simulation time : 230000000 fs.  Data written: 1, in Reg = 1
proyecto1/BReg.vhd:67:34:@250ns:(report note): Simulation time : 250000000 fs.  Data written: 2, in Reg = 4
proyecto2/testbench_AOC2_SoC.vhd:86:13:@255ns:(assertion note): >>> [ARBITRAJE] Bus concedido al IO_MASTER
proyecto1/BReg.vhd:67:34:@260ns:(report note): Simulation time : 260000000 fs.  Data written: 4, in Reg = 4
proyecto1/BReg.vhd:67:34:@270ns:(report note): Simulation time : 270000000 fs.  Data written: 8, in Reg = 8
proyecto1/BReg.vhd:67:34:@280ns:(report note): Simulation time : 280000000 fs.  Data written: 16, in Reg = 16
proyecto2/testbench_AOC2_SoC.vhd:86:13:@285ns:(assertion note): >>> [ARBITRAJE] Bus concedido al IO_MASTER
proyecto1/BReg.vhd:67:34:@290ns:(report note): Simulation time : 290000000 fs.  Data written: 16, in Reg = 6
proyecto2/testbench_AOC2_SoC.vhd:66:13:@305ns:(assertion note): >>> [EVENTO] MISS en addr=00000010
proyecto2/testbench_AOC2_SoC.vhd:78:13:@315ns:(report note): >>> [DEBUG] MIPS pide bus para addr=00000010 (NC='0')
proyecto2/testbench_AOC2_SoC.vhd:83:13:@315ns:(assertion note): >>> [ARBITRAJE] Bus concedido al MIPS
proyecto2/Via_2026_CB.vhd:60:33:@385ns:(report note): Simulation time : 385000000 fs.  Data written in via 0: 1, in Dir_cjto = 1
proyecto2/Via_2026_CB.vhd:60:33:@405ns:(report note): Simulation time : 405000000 fs.  Data written in via 0: 0, in Dir_cjto = 1
proyecto2/Via_2026_CB.vhd:60:33:@425ns:(report note): Simulation time : 425000000 fs.  Data written in via 0: 0, in Dir_cjto = 1
proyecto2/Via_2026_CB.vhd:74:33:@445ns:(report note): Simulation time : 445000000 fs.  Tag written in via 0: 0, in Dir_cjto = 1
proyecto2/Via_2026_CB.vhd:60:33:@445ns:(report note): Simulation time : 445000000 fs.  Data written in via 0: 0, in Dir_cjto = 1
proyecto1/BReg.vhd:67:34:@450ns:(report note): Simulation time : 450000000 fs.  Data written: 0, in Reg = 4
proyecto2/testbench_AOC2_SoC.vhd:86:13:@455ns:(assertion note): >>> [ARBITRAJE] Bus concedido al IO_MASTER
proyecto1/BReg.vhd:67:34:@460ns:(report note): Simulation time : 460000000 fs.  Data written: 1, in Reg = 2
proyecto1/BReg.vhd:67:34:@470ns:(report note): Simulation time : 470000000 fs.  Data written: 0, in Reg = 2
proyecto1/BReg.vhd:67:34:@480ns:(report note): Simulation time : 480000000 fs.  Data written: 32, in Reg = 6
proyecto2/testbench_AOC2_SoC.vhd:86:13:@485ns:(assertion note): >>> [ARBITRAJE] Bus concedido al IO_MASTER
proyecto1/BReg.vhd:67:34:@490ns:(report note): Simulation time : 490000000 fs.  Data written: 1, in Reg = 5
proyecto2/testbench_AOC2_SoC.vhd:66:13:@515ns:(assertion note): >>> [EVENTO] MISS en addr=00000020
proyecto2/testbench_AOC2_SoC.vhd:86:13:@515ns:(assertion note): >>> [ARBITRAJE] Bus concedido al IO_MASTER
proyecto2/testbench_AOC2_SoC.vhd:78:13:@525ns:(report note): >>> [DEBUG] MIPS pide bus para addr=00000020 (NC='0')
proyecto2/testbench_AOC2_SoC.vhd:83:13:@545ns:(assertion note): >>> [ARBITRAJE] Bus concedido al MIPS
proyecto2/Via_2026_CB.vhd:60:33:@615ns:(report note): Simulation time : 615000000 fs.  Data written in via 0: 1, in Dir_cjto = 2
proyecto2/Via_2026_CB.vhd:60:33:@635ns:(report note): Simulation time : 635000000 fs.  Data written in via 0: 0, in Dir_cjto = 2
proyecto2/Via_2026_CB.vhd:60:33:@655ns:(report note): Simulation time : 655000000 fs.  Data written in via 0: 0, in Dir_cjto = 2
proyecto2/Via_2026_CB.vhd:74:33:@675ns:(report note): Simulation time : 675000000 fs.  Tag written in via 0: 0, in Dir_cjto = 2
proyecto2/Via_2026_CB.vhd:60:33:@675ns:(report note): Simulation time : 675000000 fs.  Data written in via 0: 0, in Dir_cjto = 2
proyecto2/testbench_AOC2_SoC.vhd:86:13:@685ns:(assertion note): >>> [ARBITRAJE] Bus concedido al IO_MASTER
proyecto1/BReg.vhd:67:34:@690ns:(report note): Simulation time : 690000000 fs.  Data written: 1, in Reg = 2
proyecto1/BReg.vhd:67:34:@700ns:(report note): Simulation time : 700000000 fs.  Data written: 0, in Reg = 2
proyecto1/BReg.vhd:67:34:@710ns:(report note): Simulation time : 710000000 fs.  Data written: 48, in Reg = 6
proyecto2/testbench_AOC2_SoC.vhd:86:13:@715ns:(assertion note): >>> [ARBITRAJE] Bus concedido al IO_MASTER
proyecto1/BReg.vhd:67:34:@720ns:(report note): Simulation time : 720000000 fs.  Data written: 2, in Reg = 5
proyecto2/testbench_AOC2_SoC.vhd:66:13:@745ns:(assertion note): >>> [EVENTO] MISS en addr=00000030
proyecto2/testbench_AOC2_SoC.vhd:86:13:@745ns:(assertion note): >>> [ARBITRAJE] Bus concedido al IO_MASTER
proyecto2/testbench_AOC2_SoC.vhd:78:13:@755ns:(report note): >>> [DEBUG] MIPS pide bus para addr=00000030 (NC='0')
proyecto2/testbench_AOC2_SoC.vhd:83:13:@775ns:(assertion note): >>> [ARBITRAJE] Bus concedido al MIPS
proyecto2/Via_2026_CB.vhd:60:33:@845ns:(report note): Simulation time : 845000000 fs.  Data written in via 0: 1, in Dir_cjto = 3
proyecto2/Via_2026_CB.vhd:60:33:@865ns:(report note): Simulation time : 865000000 fs.  Data written in via 0: 0, in Dir_cjto = 3
proyecto2/Via_2026_CB.vhd:60:33:@885ns:(report note): Simulation time : 885000000 fs.  Data written in via 0: 0, in Dir_cjto = 3
proyecto2/Via_2026_CB.vhd:74:33:@905ns:(report note): Simulation time : 905000000 fs.  Tag written in via 0: 0, in Dir_cjto = 3
proyecto2/Via_2026_CB.vhd:60:33:@905ns:(report note): Simulation time : 905000000 fs.  Data written in via 0: 0, in Dir_cjto = 3
proyecto2/testbench_AOC2_SoC.vhd:86:13:@915ns:(assertion note): >>> [ARBITRAJE] Bus concedido al IO_MASTER
proyecto1/BReg.vhd:67:34:@920ns:(report note): Simulation time : 920000000 fs.  Data written: 1, in Reg = 2
proyecto1/BReg.vhd:67:34:@930ns:(report note): Simulation time : 930000000 fs.  Data written: 0, in Reg = 2
proyecto1/BReg.vhd:67:34:@940ns:(report note): Simulation time : 940000000 fs.  Data written: 64, in Reg = 6
proyecto2/testbench_AOC2_SoC.vhd:86:13:@945ns:(assertion note): >>> [ARBITRAJE] Bus concedido al IO_MASTER
proyecto1/BReg.vhd:67:34:@950ns:(report note): Simulation time : 950000000 fs.  Data written: 3, in Reg = 5
proyecto2/testbench_AOC2_SoC.vhd:66:13:@975ns:(assertion note): >>> [EVENTO] MISS en addr=00000040
proyecto2/testbench_AOC2_SoC.vhd:86:13:@975ns:(assertion note): >>> [ARBITRAJE] Bus concedido al IO_MASTER
proyecto2/testbench_AOC2_SoC.vhd:78:13:@985ns:(report note): >>> [DEBUG] MIPS pide bus para addr=00000040 (NC='0')
proyecto2/testbench_AOC2_SoC.vhd:83:13:@1005ns:(assertion note): >>> [ARBITRAJE] Bus concedido al MIPS
proyecto2/Via_2026_CB.vhd:60:33:@1075ns:(report note): Simulation time : 1075000000 fs.  Data written in via 1: 1, in Dir_cjto = 0
proyecto2/Via_2026_CB.vhd:60:33:@1095ns:(report note): Simulation time : 1095000000 fs.  Data written in via 1: 0, in Dir_cjto = 0
proyecto2/Via_2026_CB.vhd:60:33:@1115ns:(report note): Simulation time : 1115000000 fs.  Data written in via 1: 0, in Dir_cjto = 0
proyecto2/Via_2026_CB.vhd:74:33:@1135ns:(report note): Simulation time : 1135000000 fs.  Tag written in via 1: 1, in Dir_cjto = 0
proyecto2/Via_2026_CB.vhd:60:33:@1135ns:(report note): Simulation time : 1135000000 fs.  Data written in via 1: 0, in Dir_cjto = 0
proyecto2/testbench_AOC2_SoC.vhd:86:13:@1145ns:(assertion note): >>> [ARBITRAJE] Bus concedido al IO_MASTER
proyecto1/BReg.vhd:67:34:@1150ns:(report note): Simulation time : 1150000000 fs.  Data written: 1, in Reg = 2
proyecto1/BReg.vhd:67:34:@1160ns:(report note): Simulation time : 1160000000 fs.  Data written: 0, in Reg = 2
proyecto1/BReg.vhd:67:34:@1170ns:(report note): Simulation time : 1170000000 fs.  Data written: 80, in Reg = 6
proyecto2/testbench_AOC2_SoC.vhd:86:13:@1175ns:(assertion note): >>> [ARBITRAJE] Bus concedido al IO_MASTER
proyecto1/BReg.vhd:67:34:@1180ns:(report note): Simulation time : 1180000000 fs.  Data written: 4, in Reg = 5
proyecto2/testbench_AOC2_SoC.vhd:66:13:@1205ns:(assertion note): >>> [EVENTO] MISS en addr=00000050
proyecto2/testbench_AOC2_SoC.vhd:86:13:@1205ns:(assertion note): >>> [ARBITRAJE] Bus concedido al IO_MASTER
proyecto2/testbench_AOC2_SoC.vhd:78:13:@1215ns:(report note): >>> [DEBUG] MIPS pide bus para addr=00000050 (NC='0')
proyecto2/testbench_AOC2_SoC.vhd:83:13:@1235ns:(assertion note): >>> [ARBITRAJE] Bus concedido al MIPS
proyecto2/Via_2026_CB.vhd:60:33:@1305ns:(report note): Simulation time : 1305000000 fs.  Data written in via 1: 1, in Dir_cjto = 1
proyecto2/Via_2026_CB.vhd:60:33:@1325ns:(report note): Simulation time : 1325000000 fs.  Data written in via 1: 0, in Dir_cjto = 1
proyecto2/Via_2026_CB.vhd:60:33:@1345ns:(report note): Simulation time : 1345000000 fs.  Data written in via 1: 0, in Dir_cjto = 1
proyecto2/Via_2026_CB.vhd:74:33:@1365ns:(report note): Simulation time : 1365000000 fs.  Tag written in via 1: 1, in Dir_cjto = 1
proyecto2/Via_2026_CB.vhd:60:33:@1365ns:(report note): Simulation time : 1365000000 fs.  Data written in via 1: 0, in Dir_cjto = 1
proyecto2/testbench_AOC2_SoC.vhd:86:13:@1375ns:(assertion note): >>> [ARBITRAJE] Bus concedido al IO_MASTER
proyecto1/BReg.vhd:67:34:@1380ns:(report note): Simulation time : 1380000000 fs.  Data written: 1, in Reg = 2
proyecto1/BReg.vhd:67:34:@1390ns:(report note): Simulation time : 1390000000 fs.  Data written: 0, in Reg = 2
proyecto1/BReg.vhd:67:34:@1400ns:(report note): Simulation time : 1400000000 fs.  Data written: 96, in Reg = 6
proyecto2/testbench_AOC2_SoC.vhd:86:13:@1405ns:(assertion note): >>> [ARBITRAJE] Bus concedido al IO_MASTER
proyecto1/BReg.vhd:67:34:@1410ns:(report note): Simulation time : 1410000000 fs.  Data written: 5, in Reg = 5
proyecto2/testbench_AOC2_SoC.vhd:66:13:@1435ns:(assertion note): >>> [EVENTO] MISS en addr=00000060
proyecto2/testbench_AOC2_SoC.vhd:86:13:@1435ns:(assertion note): >>> [ARBITRAJE] Bus concedido al IO_MASTER
proyecto2/testbench_AOC2_SoC.vhd:78:13:@1445ns:(report note): >>> [DEBUG] MIPS pide bus para addr=00000060 (NC='0')
proyecto2/testbench_AOC2_SoC.vhd:83:13:@1465ns:(assertion note): >>> [ARBITRAJE] Bus concedido al MIPS
proyecto2/testbench_AOC2_SoC.vhd:94:9:@1520ns:(assertion note): ====================================================
proyecto2/testbench_AOC2_SoC.vhd:95:9:@1520ns:(assertion note):       AUDITORIA FINAL DE RENDIMIENTO (CACHE)        
proyecto2/testbench_AOC2_SoC.vhd:96:9:@1520ns:(assertion note): ====================================================
proyecto2/testbench_AOC2_SoC.vhd:97:9:@1520ns:(assertion note):  - Misses Totales:       7
proyecto2/testbench_AOC2_SoC.vhd:98:9:@1520ns:(assertion note):  - Aciertos Lectura (r): 12
proyecto2/testbench_AOC2_SoC.vhd:99:9:@1520ns:(assertion note):  - Aciertos Escritura(w): 0
proyecto2/testbench_AOC2_SoC.vhd:100:9:@1520ns:(assertion note):  - Bloques Copy-Back:    0
proyecto2/testbench_AOC2_SoC.vhd:101:9:@1520ns:(assertion note): ====================================================
proyecto2/testbench_AOC2_SoC.vhd:35:9:@1530ns:(assertion note): --- SIMULACION COMPLETADA ---
proyecto2/Via_2026_CB.vhd:60:33:@1535ns:(report note): Simulation time : 1535000000 fs.  Data written in via 1: 1, in Dir_cjto = 2
proyecto2/Via_2026_CB.vhd:60:33:@1555ns:(report note): Simulation time : 1555000000 fs.  Data written in via 1: 0, in Dir_cjto = 2
proyecto2/Via_2026_CB.vhd:60:33:@1575ns:(report note): Simulation time : 1575000000 fs.  Data written in via 1: 0, in Dir_cjto = 2
proyecto2/Via_2026_CB.vhd:74:33:@1595ns:(report note): Simulation time : 1595000000 fs.  Tag written in via 1: 1, in Dir_cjto = 2
proyecto2/Via_2026_CB.vhd:60:33:@1595ns:(report note): Simulation time : 1595000000 fs.  Data written in via 1: 0, in Dir_cjto = 2
proyecto2/testbench_AOC2_SoC.vhd:86:13:@1605ns:(assertion note): >>> [ARBITRAJE] Bus concedido al IO_MASTER
proyecto1/BReg.vhd:67:34:@1610ns:(report note): Simulation time : 1610000000 fs.  Data written: 1, in Reg = 2
proyecto1/BReg.vhd:67:34:@1620ns:(report note): Simulation time : 1620000000 fs.  Data written: 0, in Reg = 2
proyecto1/BReg.vhd:67:34:@1630ns:(report note): Simulation time : 1630000000 fs.  Data written: 112, in Reg = 6
proyecto2/testbench_AOC2_SoC.vhd:86:13:@1635ns:(assertion note): >>> [ARBITRAJE] Bus concedido al IO_MASTER
proyecto1/BReg.vhd:67:34:@1640ns:(report note): Simulation time : 1640000000 fs.  Data written: 6, in Reg = 5
proyecto2/testbench_AOC2_SoC.vhd:66:13:@1665ns:(assertion note): >>> [EVENTO] MISS en addr=00000070
proyecto2/testbench_AOC2_SoC.vhd:86:13:@1665ns:(assertion note): >>> [ARBITRAJE] Bus concedido al IO_MASTER
proyecto2/testbench_AOC2_SoC.vhd:78:13:@1675ns:(report note): >>> [DEBUG] MIPS pide bus para addr=00000070 (NC='0')
proyecto2/testbench_AOC2_SoC.vhd:83:13:@1695ns:(assertion note): >>> [ARBITRAJE] Bus concedido al MIPS
proyecto2/Via_2026_CB.vhd:60:33:@1765ns:(report note): Simulation time : 1765000000 fs.  Data written in via 1: 1, in Dir_cjto = 3
proyecto2/Via_2026_CB.vhd:60:33:@1785ns:(report note): Simulation time : 1785000000 fs.  Data written in via 1: 0, in Dir_cjto = 3
proyecto2/Via_2026_CB.vhd:60:33:@1805ns:(report note): Simulation time : 1805000000 fs.  Data written in via 1: 0, in Dir_cjto = 3
proyecto2/Via_2026_CB.vhd:74:33:@1825ns:(report note): Simulation time : 1825000000 fs.  Tag written in via 1: 1, in Dir_cjto = 3
proyecto2/Via_2026_CB.vhd:60:33:@1825ns:(report note): Simulation time : 1825000000 fs.  Data written in via 1: 0, in Dir_cjto = 3
proyecto2/testbench_AOC2_SoC.vhd:86:13:@1835ns:(assertion note): >>> [ARBITRAJE] Bus concedido al IO_MASTER
proyecto1/BReg.vhd:67:34:@1840ns:(report note): Simulation time : 1840000000 fs.  Data written: 1, in Reg = 2
proyecto1/BReg.vhd:67:34:@1850ns:(report note): Simulation time : 1850000000 fs.  Data written: 0, in Reg = 2
proyecto1/BReg.vhd:67:34:@1860ns:(report note): Simulation time : 1860000000 fs.  Data written: 128, in Reg = 6
proyecto2/testbench_AOC2_SoC.vhd:86:13:@1865ns:(assertion note): >>> [ARBITRAJE] Bus concedido al IO_MASTER
proyecto1/BReg.vhd:67:34:@1870ns:(report note): Simulation time : 1870000000 fs.  Data written: 7, in Reg = 5
proyecto2/testbench_AOC2_SoC.vhd:66:13:@1895ns:(assertion note): >>> [EVENTO] MISS en addr=00000080
proyecto2/testbench_AOC2_SoC.vhd:86:13:@1895ns:(assertion note): >>> [ARBITRAJE] Bus concedido al IO_MASTER
proyecto2/testbench_AOC2_SoC.vhd:78:13:@1905ns:(report note): >>> [DEBUG] MIPS pide bus para addr=00000080 (NC='0')
proyecto2/testbench_AOC2_SoC.vhd:83:13:@1925ns:(assertion note): >>> [ARBITRAJE] Bus concedido al MIPS
proyecto2/Via_2026_CB.vhd:60:33:@1995ns:(report note): Simulation time : 1995000000 fs.  Data written in via 0: 16, in Dir_cjto = 0
ghdl:info: simulation stopped by --stop-time @2us
[0;32mâœ“ Simulacion completada: /mnt/c/Users/Pablo/Desktop/AOC2_p4/Moodle 2026_p2/Moodle 2026_p2/simulation/aoc2_p2_testbench.vcd[0m
[0;32mâœ“ GTKWave abierto con: /mnt/c/Users/Pablo/Desktop/AOC2_p4/Moodle 2026_p2/Moodle 2026_p2/simulation/aoc2_p2_testbench.vcd y ondas_cache.gtkw[0m
[0;32mâœ“ Flujo completado[0m
